Practical exercises: solutions
…
# Descirption are saved in the codebook
census_keystat_cb.df

## # A tibble: 25 x 5
##     date cell_type     cell cell_code  cell_name                                
##    <dbl> <chr>        <dbl> <chr>      <chr>                                    
##  1  2011 Dwelling Ty~     0 KS401EW00~ All categories: Dwelling type            
##  2  2011 Dwelling Ty~     1 KS401EW00~ Unshared dwelling                        
##  3  2011 Dwelling Ty~     2 KS401EW00~ Shared dwelling                          
##  4  2011 Dwelling Ty~     3 KS401EW00~ All categories: Household spaces         
##  5  2011 Dwelling Ty~     4 KS401EW00~ Household spaces with at least one usual~
##  6  2011 Dwelling Ty~     5 KS401EW00~ Household spaces with no usual residents 
##  7  2011 Dwelling Ty~     6 KS401EW00~ Whole house or bungalow: Detached        
##  8  2011 Dwelling Ty~     7 KS401EW00~ Whole house or bungalow: Semi-detached   
##  9  2011 Dwelling Ty~     8 KS401EW00~ Whole house or bungalow: Terraced (inclu~
## 10  2011 Dwelling Ty~     9 KS401EW00~ Flat, maisonette or apartment: Purpose-b~
## # ... with 15 more rows
…
